movie.knit
…
This shows that the most liked movies are released in the 1980-2000 time period

Conclusions from the Graphs

Question 1: Which release years had the most number of movies shot?

popular_by_year <- mov %>%
  group_by(Year) %>%
  summarize(Number_of_movies = n_distinct(Title)) %>%
  filter(Number_of_movies > 5) %>%
  arrange(desc(Number_of_movies))
popular_by_year

## # A tibble: 25 x 2
##     Year Number_of_movies
##    <int>            <int>
##  1  2018              143
##  2  2017              140
##  3  2016               96
##  4  2019               91
##  5  2015               57
##  6  2014               53
##  7  2010               36
##  8  2013               34
##  9  2011               27
## 10  2009               23
## # ... with 15 more rows
…
